{
    "appName": "amplifydemo",
    "roleName": "pinpointLambdaRolea9f04679",
    "cloudformationPolicyName": "cloudformationPolicya9f04679",
    "cloudWatchPolicyName": "cloudWatchPolicya9f04679",
    "pinpointPolicyName": "pinpointPolicya9f04679",
    "authPolicyName": "pinpoint_amplify_a9f04679",
    "unauthPolicyName": "pinpoint_amplify_a9f04679",
    "authRoleName": {
        "Ref": "AuthRoleName"
    },
    "unauthRoleName": {
        "Ref": "UnauthRoleName"
    },
    "authRoleArn": {
        "Fn::GetAtt": [
            "AuthRole",
            "Arn"
        ]
    }
}